…
``` r
reg_season <- games %>%
  filter(starts_with(season_code, "REG")) %>%
  select(season_code, everything(), -starts_with("dbt"), -ends_with("score"), -game_id, -game_url) 
```

To actually run this query, we will need to use one of the functions like `collect()`, or `head()` to force query execution. However, before we do that, we can still add query statements to our object, which will be part of the query when it’s finally executed. This is a really nice option if we need to logically break up query construction, without incurring additional BigQuery processing costs.

``` r
reg_season %>% 
  arrange(game_date) %>%
  collect()
```

    ## # A tibble: 2,816 x 7
    ##    season_code game_date  season_nbr season_type_code week_nbr home_team_code
    ##    <chr>       <date>          <int> <chr>               <int> <chr>         
    ##  1 REG2009     2009-09-10       2009 REG                     1 PIT           
    ##  2 REG2009     2009-09-13       2009 REG                     1 SEA           
    ##  3 REG2009     2009-09-13       2009 REG                     1 ATL           
    ##  4 REG2009     2009-09-13       2009 REG                     1 IND           
    ##  5 REG2009     2009-09-13       2009 REG                     1 CIN           
    ##  6 REG2009     2009-09-13       2009 REG                     1 GB            
    ##  7 REG2009     2009-09-13       2009 REG                     1 NYG           
    ##  8 REG2009     2009-09-13       2009 REG                     1 ARI           
    ##  9 REG2009     2009-09-13       2009 REG                     1 HOU           
    ## 10 REG2009     2009-09-13       2009 REG                     1 BAL           
    ## # … with 2,806 more rows, and 1 more variable: away_team_code <chr>
…
